  [
    {
      "name": "Erkki Esimerkki",
      "email": "erkki.esimerkki@kamk.fi",
      "address": "Kehittäjäkatu 123"
    },
    {
      "name": "Kettu Kehittäjä",
      "email": "kettu.kehittaja@kamk.fi",
      "address": "Kehittäjäkatu 123"
    },
    {
      "name": "Pete Koodari",
      "email": "pete.koodari@kamk.fi",
      "address": "Kehittäjäkatu 123"
    },
    {
      "name": "Teppo Testaaja",
      "email": "teppo.testaaja@kamk.fi",
      "address": "Kehittäjäkatu 123"
    },
    {
      "name": "Pertti Projektipäälikkö",
      "email": "pertti@kamk.fi",
      "address": "Kehittäjäkatu 123"
    }
  ] 
